{
  "name": "uchideshi34-doip-maps",
  "title": "uchideshi34's Dragon of Icespire Peak Maps",
  "description": "<p>A complete pack of maps for Dragon of Icespire Peak. Made in Dungeondraft using 2 Minute Tabletop assets. You can find my other work on reddit posted under my username: u/uchideshi34</p>",
  "author": "uchideshi34",
  "authors": [],
  "url": "https://gitlab.com/uchideshi34/dragon-of-icespire-peak-maps/",
  "flags": {},
  "version": "1.1.2",
  "minimumCoreVersion": "0.8.0",
  "compatibleCoreVersion": "9",
  "scripts": [],
  "esmodules": [],
  "styles": [],
  "languages": [],
  "packs": [
    {
      "name": "maps",
      "label": "Dragon of Icespire Peak Maps",
      "path": "/packs/doip-maps.db",
      "entity": "Scene",
      "type": "Scene",
      "private": false
    }
  ],
  "relationships": {
  "systems": [],
  "requires": [{
        "id": "betterroofs",
        "type": "module",
        "compatibility": {}
      },
      {
        "id": "levels",
        "type": "module",
        "compatibility": {}
      },
      {
        "id": "lib-wrapper",
        "type": "module",
        "compatibility": {}
      },
      {
        "id": "wall-height",
        "type": "module",
        "compatibility": {}
      }
  ]
},
  "socket": false,
  "manifest": "https://gitlab.com/uchideshi34/dragon-of-icespire-peak-maps/-/raw/main/module.json",
  "download": "https://gitlab.com/uchideshi34/dragon-of-icespire-peak-maps/-/raw/main/zip/uchideshi34-doip-maps.zip",
  "protected": false,
  "coreTranslation": false,
  "library": false
}

